Combined CWL workshop
…
The R scripts to build the CWL tools and pipelines based on the Rcwl package are stored in the tools and pipelines folder respectively. The function cwlTools can be used to collect the available scripts. The cachePath can be your existing cache directory or a new folder.

tools <- cwlTools(cachePath = tempdir())
tools
#> class: BiocFileCache
#> bfccache: /tmp/RtmpTZyQKS
#> bfccount: 36
#> For more information see: bfcinfo() or bfcquery()

The full paths can be pulled from the fpath column.

suppressPackageStartupMessages(library(dplyr))
bfcinfo(tools) %>% select(rname, fpath)
#> # A tibble: 36 x 2
#>    rname           fpath                                                     
#>    <chr>           <chr>                                                     
#>  1 blastn          /home/qiang/R/x86_64-pc-linux-gnu-library/3.6/RcwlPipelin
#>  2 bowtie2_align   /home/qiang/R/x86_64-pc-linux-gnu-library/3.6/RcwlPipelin
#>  3 bowtie2_build   /home/qiang/R/x86_64-pc-linux-gnu-library/3.6/RcwlPipelin
#>  4 bwa_index       /home/qiang/R/x86_64-pc-linux-gnu-library/3.6/RcwlPipelin
#>  5 bwa             /home/qiang/R/x86_64-pc-linux-gnu-library/3.6/RcwlPipelin
#>  6 cutadapt        /home/qiang/R/x86_64-pc-linux-gnu-library/3.6/RcwlPipelin
#>  7 fastQC          /home/qiang/R/x86_64-pc-linux-gnu-library/3.6/RcwlPipelin
#>  8 featureCounts   /home/qiang/R/x86_64-pc-linux-gnu-library/3.6/RcwlPipelin
#>  9 geneBody_cover /home/qiang/R/x86_64-pc-linux-gnu-library/3.6/RcwlPipelin
#> 10 genePredToBed   /home/qiang/R/x86_64-pc-linux-gnu-library/3.6/RcwlPipelin
#> #  with 26 more rows
…
