…
the expression dataset

phenotype information for the samples

a collection of pathways

Expression and phenotype data

We can obtain protein expression and phenotype datasets for the TCGA ovarian cancer dataset by downloading the raw files from the LinkedOmics website. However, for ease and to save time, we include cleaned and imputed versions of these datasets within this package (for the cleaning process, please see the clean_multi_omics.R file in inst/scripts).

The ovProteome_df dataset is a data frame with protein expression levels and TCGA sample IDs. The variables (columns) include expression data for 4763 proteins for each of the 83 primary tumour samples.

data("ovProteome_df")
ovProteome_df[, 1:5]
#> # A tibble: 83 x 5
#>    Sample          A1BG    A2M    AAAS    AAK1
#>    <chr>          <dbl>  <dbl>   <dbl>   <dbl>
#>  1 TCGA-13-1489  0.0154 -0.419  0.0359  0.014 
#>  2 TCGA-42-2590 -0.508  -0.769 -0.0443  0.109 
#>  3 TCGA-36-2529 -0.148   0.209 -0.212   0.599 
#>  4 TCGA-24-1105  0.302  -0.343  0.116  -0.403 
#>  5 TCGA-29-1785 -0.584  -0.353 -0.192  -0.220 
#>  6 TCGA-24-2290 -0.954  -0.670 -0.0364  0.590 
#>  7 TCGA-24-1428 -0.352  -1.34   0.0283 -0.200 
#>  8 TCGA-24-1923  0.245  -0.471  0.0789 -0.0568
#>  9 TCGA-24-1563  0.0212  0.242  0.0636  0.785 
#> 10 TCGA-24-1430 -0.205  -0.154  0.0028  0.105 
#> # … with 73 more rows

The ovPheno_df data frame contains TCGA sample IDs, overall survival time, and overall survival censoring status.

data("ovPheno_df")
ovPheno_df
#> # A tibble: 565 x 3
#>    Sample       OS_time OS_status
#>    <chr>          <dbl>     <int>
#>  1 TCGA-3P-A9WA     420         0
#>  2 TCGA-59-A5PD     624         1
#>  3 TCGA-5X-AA5U     361         0
#>  4 TCGA-04-1331    1336         1
#>  5 TCGA-04-1332    1247         1
#>  6 TCGA-04-1335      55         1
#>  7 TCGA-04-1336    1495         0
#>  8 TCGA-04-1337      61         1
#>  9 TCGA-04-1338    1418         0
#> 10 TCGA-04-1341      33         0
#> # … with 555 more rows
…
Extract relevant genes from significant pathways

Because pathways are defined a priori, typically only a subset of genes within each pathway are relevant to the phenotype and contribute to pathway significance. In AESPCA, these relevant genes are the genes with nonzero loadings in the first PC of AESPCs.

For example, we know that the IL-1 Signaling Pathway is one of cancer’s “usual suspects”.48 For the “IL-1 signaling pathway” (Wikipathways WP19549), we can extract the PCs and their protein Loadings using the getPathPCLs() function:

wp195PCLs_ls <- getPathPCLs(ovarian_aespcOut, "WP195")
wp195PCLs_ls
#> $PCs
#> # A tibble: 83 x 2
#>    sampleID          V1
#>    <chr>          <dbl>
#>  1 TCGA-09-1664 -2.90  
#>  2 TCGA-13-1484  0.0985
#>  3 TCGA-13-1488 -0.0724
#>  4 TCGA-13-1489  0.201 
#>  5 TCGA-13-1494 -0.506 
#>  6 TCGA-13-1495 -0.360 
#>  7 TCGA-13-1499 -0.529 
#>  8 TCGA-13-2071  2.11  
#>  9 TCGA-23-1123 -0.874 
#> 10 TCGA-23-1124  1.52  
#> # … with 73 more rows
#> 
#> $Loadings
#> # A tibble: 25 x 2
#>    featureID    PC1
#>    <chr>      <dbl>
#>  1 MAPK14    0     
#>  2 AKT1      0     
#>  3 IKBKB     0.531 
#>  4 NFKB1     0.528 
#>  5 PIK3R1    0.191 
#>  6 PLCG1     0     
#>  7 MAPK1     0.0882
#>  8 MAP2K1    0.300 
#>  9 MAP2K2    0     
#> 10 MAP2K6    0     
#> # … with 15 more rows
…
This graph shows there can be considerable heterogeneity in pathway activities between the patients.

Extract analysis dataset for entire pathway

Users are often also interested in examining the actual data used for analysis of the top pathways, especially for the relevant genes with the pathway. To extract this dataset, we can use the SubsetPathwayData() function. These commands extract data for the IL-1 signaling pathway:

wp195Data_df <- SubsetPathwayData(ov_OmicsSurv, "WP195")
wp195Data_df
#> # A tibble: 83 x 28
#>    sampleID EventTime EventObs  MAPK14    AKT1   IKBKB   NFKB1  PIK3R1
#>    <chr>        <dbl> <lgl>      <dbl>   <dbl>   <dbl>   <dbl>   <dbl>
#>  1 TCGA-09…      2279 TRUE     -0.995   0.958  -1.70   -0.730  -1.35  
#>  2 TCGA-13…      3785 TRUE      1.71    0.575  -0.744   0.783   1.18  
#>  3 TCGA-13…      2154 TRUE     -0.127  -0.542  -0.908   0.418   0.324 
#>  4 TCGA-13…      2553 TRUE     -0.0591 -0.291  -0.416  -0.488  -2.37  
#>  5 TCGA-13…      2856 TRUE      0.610   1.25   -0.943   0.394   0.309 
#>  6 TCGA-13…      2749 TRUE      0.265   1.79   -0.515  -0.0499 -0.0504
#>  7 TCGA-13…      3500 FALSE     0.516  -0.519  -0.487   0.104   1.54  
#>  8 TCGA-13…       773 TRUE     -0.107   0.323   1.05    1.27    1.35  
#>  9 TCGA-23…      1018 TRUE     -0.419  -3.63    0.0398 -0.114  -0.0345
#> 10 TCGA-23…      1768 TRUE     -1.81   -0.0215  0.817   1.17    0.567 
#> # … with 73 more rows, and 20 more variables: PLCG1 <dbl>, MAPK1 <dbl>,
#> #   MAP2K1 <dbl>, MAP2K2 <dbl>, MAP2K6 <dbl>, PTPN11 <dbl>, RELA <dbl>,
#> #   MAP3K7 <dbl>, IKBKG <dbl>, TAB1 <dbl>, IRAK4 <dbl>, ECSIT <dbl>,
#> #   TOLLIP <dbl>, MAPK3 <dbl>, MAP2K3 <dbl>, MAP2K4 <dbl>, TRAF6 <dbl>,
#> #   UBE2N <dbl>, SQSTM1 <dbl>, MAPKAPK2 <dbl>
…
Case study 2: An Integrative Multi-Omics Pathway Analysis of Ovarian Cancer Survival

While copy number alterations are common genomic aberrations in ovarian carcer, recent studies have shown these changes do not necessarily lead to concordant changes in protein expression. In Section 1.5.3 above, we illustrated testing pathway activities in protein expression against survival outcome. In this section, we will additionally test pathway activities in copy number against survival outcome. Moreover, we will perform integrative analysis to identify those survival-associated protein pathways, genes, and samples driven by copy number alterations.

Creating copy number Omics data object

We can identify copy number (CNV) pathways significantly associated with survival in the same way as we did for protein expressions. This gene-level CNV data was downloaded from the same LinkedOmics database.

data("ovCNV_df")
ovCNV_df[, 1:5]
#> # A tibble: 579 x 5
#>    Sample        ACAP3 ACTRT2   AGRN ANKRD65
#>    <chr>         <dbl>  <dbl>  <dbl>   <dbl>
#>  1 TCGA-04-1331 -0.703 -0.703 -0.703  -0.703
#>  2 TCGA-04-1332  0.08   0.08   0.08    0.08 
#>  3 TCGA-04-1335 -0.807 -0.807 -0.807  -0.807
#>  4 TCGA-04-1336  0.101  0.101  0.101   0.101
#>  5 TCGA-04-1337  0.021  0.021  0.021   0.021
#>  6 TCGA-04-1338 -0.999 -0.999 -0.999  -0.999
#>  7 TCGA-04-1341 -0.421 -0.421 -0.421  -0.421
#>  8 TCGA-04-1342  0.089  0.089  0.089   0.089
#>  9 TCGA-04-1343  0.279  0.279  0.279   0.279
#> 10 TCGA-04-1346 -0.396 -0.396 -0.396  -0.396
#> # … with 569 more rows
…
