…
tibble representations have pleasant summaries:

library(tibble)
as.tibble(genes79)

## Warning: `as.tibble()` is deprecated, use `as_tibble()` (but mind the new semantics).
## This warning is displayed once per session.

## # A tibble: 65,774 x 11
##    seqnames start    end width strand gene_id gene_name gene_biotype
##    <fct>    <int>  <int> <int> <fct>  <chr>   <chr>     <chr>       
##  1 1        11869  14409  2541 +      ENSG00 DDX11L1   transcribed
##  2 1        14404  29570 15167 -      ENSG00 WASH7P    unprocessed
##  3 1        17369  17436    68 -      ENSG00 MIR6859-3 miRNA       
##  4 1        29554  31109  1556 +      ENSG00 RP11-34P lincRNA     
##  5 1        30366  30503   138 +      ENSG00 MIR1302-9 miRNA       
##  6 1        34554  36081  1528 -      ENSG00 FAM138A   lincRNA     
##  7 1        52473  53312   840 +      ENSG00 OR4G4P    unprocessed
##  8 1        62948  63887   940 +      ENSG00 OR4G11P   unprocessed
##  9 1        69091  70008   918 +      ENSG00 OR4F5     protein_cod
## 10 1        89295 133723 44429 -      ENSG00 RP11-34P lincRNA     
## #  with 65,764 more rows, and 3 more variables: seq_coord_system <chr>,
## #   symbol <chr>, entrezid <I<list>>
…
